<?xml version="1.0" encoding="UTF-8" standalone="no"?>
<svg
   xmlns:dc="http://purl.org/dc/elements/1.1/"
   xmlns:cc="http://creativecommons.org/ns#"
   xmlns:rdf="http://www.w3.org/1999/02/22-rdf-syntax-ns#"
   xmlns:svg="http://www.w3.org/2000/svg"
   xmlns="http://www.w3.org/2000/svg"
   version="1.1"
   id="svg25624"
   viewBox="0 0 264.71906 102.04207"
   height="28.79854mm"
   width="74.709602mm">
  <defs
     id="defs25626" />
  <metadata
     id="metadata25629">
    <rdf:RDF>
      <cc:Work
         rdf:about="">
        <dc:format>image/svg+xml</dc:format>
        <dc:type
           rdf:resource="http://purl.org/dc/dcmitype/StillImage" />
        <dc:title></dc:title>
      </cc:Work>
    </rdf:RDF>
  </metadata>
  <g
     transform="translate(-41.926179,-69.912594)"
     id="layer1">
    <path
       d="m 129.92996,138.32726 0,7.18662 c 0,3.664 1.702,5.302 4.62675,5.302 3.02525,0 4.823,-1.70187 4.823,-5.27462 l 0,-7.214 -2.61,0 0,7.37825 c 0,2.04875 -0.75288,3.0115 -2.12625,3.0115 -1.32325,0 -2.099,-1.013 -2.099,-3.0115 l 0,-7.37825 -2.6145,0"
       style="fill:#ffffff;fill-opacity:1;fill-rule:evenodd;stroke:none"
       id="path2874" />
    <path
       d="m 141.08158,150.62888 2.61,0 0,-4.85037 c 0,-0.23725 0.0138,-0.4745 0.0863,-0.6525 0.187,-0.4745 0.616,-0.97188 1.3415,-0.97188 0.93538,0 1.3095,0.73463 1.3095,1.82513 l 0,4.64962 2.6145,0 0,-4.9645 c 0,-2.473 -1.28675,-3.62287 -3.00237,-3.62287 -1.40988,0 -2.2495,0.7985 -2.58713,1.35975 l -0.0587,0 -0.11375,-1.17263 -2.26325,0 c 0.0225,0.762 0.0637,1.638 0.0637,2.67375 l 0,5.7265"
       style="fill:#ffffff;fill-opacity:1;fill-rule:evenodd;stroke:none"
       id="path2876" />
    <path
       d="m 151.98233,138.32726 c -0.8395,0 -1.39162,0.56125 -1.39162,1.3005 0,0.7255 0.53837,1.31412 1.36425,1.31412 0.87612,0 1.40087,-0.58862 1.40087,-1.31412 -0.0138,-0.73925 -0.52475,-1.3005 -1.3735,-1.3005"
       style="fill:#ffffff;fill-opacity:1;fill-rule:evenodd;stroke:none"
       id="path2878" />
    <path
       d="m 150.66821,150.62888 2.6005,0 0,-8.40037 -2.6005,0 0,8.40037 z"
       style="fill:#ffffff;fill-opacity:1;fill-rule:evenodd;stroke:none"
       id="path2880" />
    <path
       d="m 153.99458,142.22863 3.06175,8.40025 2.61451,0 3.11187,-8.40025 -2.73775,0 -1.0905,3.90125 c -0.18713,0.71175 -0.324,1.346 -0.46088,2.035 l -0.05,0 c -0.13687,-0.66162 -0.27375,-1.32325 -0.48825,-2.035 l -1.1225,-3.90125 -2.83812,0"
       style="fill:#ffffff;fill-opacity:1;fill-rule:evenodd;stroke:none"
       id="path2882" />
    <path
       d="m 165.24209,145.47738 c 0.0775,-0.6845 0.51112,-1.69737 1.61525,-1.69737 1.21375,0 1.47387,1.0585 1.47387,1.69737 l -3.08912,0 z m 5.42537,1.78863 c 0.0363,-0.20075 0.0863,-0.58863 0.0863,-1.04038 0,-2.0715 -1.02212,-4.18412 -3.737,-4.18412 -2.92475,0 -4.248,2.34987 -4.248,4.48537 0,2.62363 1.638,4.27538 4.48525,4.27538 1.14075,0 2.1765,-0.17338 3.03887,-0.53838 l -0.33762,-1.76137 c -0.71175,0.23737 -1.43725,0.35137 -2.32713,0.35137 -1.20912,0 -2.29512,-0.51562 -2.35899,-1.58787 l 5.398,0"
       style="fill:#ffffff;fill-opacity:1;fill-rule:evenodd;stroke:none"
       id="path2884" />
    <path
       d="m 171.84458,150.62888 2.59638,0 0,-4.26637 c 0,-0.19613 0.0275,-0.41063 0.0637,-0.584 0.16425,-0.7985 0.82587,-1.31413 1.78862,-1.31413 0.28751,0 0.48825,0.0275 0.69813,0.0638 l 0,-2.45025 c -0.18712,-0.0362 -0.31025,-0.05 -0.54763,-0.05 -0.82587,0 -1.83874,0.51113 -2.26312,1.75225 l -0.0725,0 -0.1,-1.55137 -2.24037,0 c 0.0637,0.7255 0.0775,1.524 0.0775,2.7605 l 0,5.63975"
       style="fill:#ffffff;fill-opacity:1;fill-rule:evenodd;stroke:none"
       id="path2886" />
    <path
       d="m 177.40683,150.21363 c 0.63425,0.33763 1.61063,0.60225 2.71026,0.60225 2.40012,0 3.6275,-1.14975 3.6275,-2.73762 -0.0275,-1.21375 -0.67525,-2.03963 -2.27688,-2.58725 -1.022,-0.365 -1.35062,-0.56125 -1.35062,-0.97638 0,-0.41075 0.36512,-0.67537 0.99937,-0.67537 0.70263,0 1.44187,0.27375 1.816,0.48825 l 0.44713,-1.8115 c -0.511,-0.25088 -1.37338,-0.48825 -2.34988,-0.48825 -2.07612,0 -3.413,1.17275 -3.413,2.76512 -0.0225,0.98563 0.6525,1.93475 2.4,2.52338 0.96288,0.32387 1.21375,0.52462 1.21375,0.97187 0,0.42888 -0.324,0.689 -1.11337,0.689 -0.77563,0 -1.76125,-0.324 -2.2495,-0.62512 l -0.46075,1.86162"
       style="fill:#ffffff;fill-opacity:1;fill-rule:evenodd;stroke:none"
       id="path2888" />
    <path
       d="m 186.18121,138.32726 c -0.8395,0 -1.38713,0.56125 -1.38713,1.3005 0,0.7255 0.52475,1.31412 1.35063,1.31412 0.88525,0 1.41,-0.58862 1.41,-1.31412 -0.0138,-0.73925 -0.52475,-1.3005 -1.3735,-1.3005"
       style="fill:#ffffff;fill-opacity:1;fill-rule:evenodd;stroke:none"
       id="path2890" />
    <path
       d="m 184.85346,150.62888 2.613,0 0,-8.40037 -2.613,0 0,8.40037 z"
       style="fill:#ffffff;fill-opacity:1;fill-rule:evenodd;stroke:none"
       id="path2892" />
    <path
       d="m 194.61796,146.87813 c 0,0.20988 -0.0275,0.41075 -0.0637,0.59775 -0.1505,0.75288 -0.762,1.264 -1.524,1.264 -1.07225,0 -1.78863,-0.899 -1.78863,-2.32712 0,-1.32325 0.60226,-2.38638 1.816,-2.38638 0.7985,0 1.3735,0.58863 1.524,1.27763 0.0362,0.146 0.0362,0.33762 0.0362,0.4745 l 0,1.09962 z m 0,-8.46412 0,4.55375 -0.0362,0 c -0.37412,-0.56575 -1.17725,-0.94 -2.213,-0.94 -2.01225,0 -3.7735,1.63812 -3.76438,4.47625 0,2.61 1.60163,4.31187 3.591,4.31187 1.086,0 2.11263,-0.48812 2.62363,-1.4145 l 0.05,0 0.1,1.2275 2.3225,0 c -0.0362,-0.575 -0.0588,-1.56512 -0.0588,-2.51412 l 0,-9.70075 -2.61463,0"
       style="fill:#ffffff;fill-opacity:1;fill-rule:evenodd;stroke:none"
       id="path2894" />
    <path
       d="m 203.30571,147.56713 c 0,0.15975 -0.0138,0.31025 -0.05,0.44725 -0.17338,0.53838 -0.7255,0.96275 -1.36438,0.96275 -0.57487,0 -1.022,-0.324 -1.022,-0.99925 0,-0.98562 1.06313,-1.31412 2.4365,-1.31412 l 0,0.90337 z m 2.52325,-1.90275 c 0,-1.9985 -0.8715,-3.63662 -3.67313,-3.63662 -1.52399,0 -2.67374,0.42437 -3.26237,0.75287 l 0.4745,1.68375 c 0.55213,-0.35137 1.46475,-0.63425 2.32712,-0.63425 1.28663,0 1.52401,0.63425 1.52401,1.09963 l 0,0.0962 c -2.97501,0 -4.928,1.02662 -4.928,3.21225 0,1.3415 1.013,2.578 2.715,2.578 0.99925,0 1.84787,-0.365 2.4,-1.02663 l 0.05,0 0.16425,0.83963 2.34537,0 c -0.0962,-0.46538 -0.137,-1.24113 -0.137,-2.026 l 0,-2.9385"
       style="fill:#ffffff;fill-opacity:1;fill-rule:evenodd;stroke:none"
       id="path2896" />
    <path
       d="m 212.95621,146.87813 c 0,0.20988 -0.0138,0.41075 -0.05,0.59775 -0.15062,0.75288 -0.77575,1.264 -1.524,1.264 -1.09062,0 -1.78875,-0.899 -1.78875,-2.32712 0,-1.32325 0.60237,-2.38638 1.79788,-2.38638 0.81675,0 1.37799,0.58863 1.5285,1.27763 0.0362,0.146 0.0362,0.33762 0.0362,0.4745 l 0,1.09962 z m 0,-8.46412 0,4.55375 -0.0362,0 c -0.37875,-0.56575 -1.1635,-0.94 -2.213,-0.94 -2.00312,0 -3.778,1.63812 -3.76438,4.47625 0,2.61 1.60163,4.31187 3.58651,4.31187 1.09049,0 2.11262,-0.48812 2.64187,-1.4145 l 0.045,0 0.1,1.2275 2.31337,0 c -0.0362,-0.575 -0.0637,-1.56512 -0.0637,-2.51412 l 0,-9.70075 -2.60999,0"
       style="fill:#ffffff;fill-opacity:1;fill-rule:evenodd;stroke:none"
       id="path2898" />
    <path
       d="m 236.50533,145.36326 c 0,-1.68825 -0.63424,-3.4495 -3.23512,-3.4495 -1.06313,0 -2.1035,0.30112 -2.80163,0.73912 l 0.34676,1.02213 c 0.60237,-0.397 1.42825,-0.6205 2.22674,-0.6205 1.7385,-0.0275 1.93926,1.25937 1.93926,1.94825 l 0,0.1735 c -3.28988,-0.0225 -5.115,1.09962 -5.115,3.15287 0,1.23663 0.88974,2.45025 2.60087,2.45025 1.21363,0 2.12625,-0.60225 2.60075,-1.2775 l 0.05,0 0.12375,1.07675 1.378,0 c -0.0775,-0.57487 -0.11375,-1.30037 -0.11375,-2.03962 l 0,-3.17575 z m -1.48749,2.3545 c 0,0.13687 -0.0225,0.31025 -0.0725,0.49737 -0.251,0.71175 -0.96274,1.4145 -2.08987,1.4145 -0.77563,0 -1.43725,-0.45175 -1.43725,-1.47837 0,-1.64725 1.91187,-1.93475 3.60013,-1.89825 l 0,1.46475"
       style="fill:#ffffff;fill-opacity:1;fill-rule:evenodd;stroke:none"
       id="path2900" />
    <path
       d="m 239.48034,150.57863 1.53762,0 0,-4.52637 c 0,-0.25088 0.0225,-0.511 0.0637,-0.7255 0.21,-1.14988 0.972,-1.962 2.07162,-1.962 0.20525,0 0.36501,0 0.52925,0.0362 l 0,-1.4465 c -0.1505,-0.0275 -0.27837,-0.0412 -0.42887,-0.0412 -1.03575,0 -1.98488,0.71175 -2.359,1.86625 l -0.0637,0 -0.0725,-1.68825 -1.3415,0 c 0.05,0.78475 0.0637,1.64712 0.0637,2.651 l 0,5.83587"
       style="fill:#ffffff;fill-opacity:1;fill-rule:nonzero;stroke:none"
       id="path2902" />
    <path
       d="m 251.58108,145.36326 c 0,-1.68825 -0.62512,-3.4495 -3.22599,-3.4495 -1.07226,0 -2.11263,0.30112 -2.797,0.73912 l 0.34675,1.02213 c 0.58862,-0.397 1.4145,-0.6205 2.22674,-0.6205 1.73388,-0.0275 1.92551,1.25937 1.92551,1.94825 l 0,0.1735 c -3.27613,-0.0225 -5.10125,1.09962 -5.10125,3.15287 0,1.23663 0.876,2.45025 2.60075,2.45025 1.20012,0 2.11262,-0.60225 2.58725,-1.2775 l 0.05,0 0.12375,1.07675 1.38712,0 c -0.0863,-0.57487 -0.12375,-1.30037 -0.12375,-2.03962 l 0,-3.17575 z m -1.4875,2.3545 c 0,0.13687 -0.0138,0.31025 -0.0725,0.49737 -0.24187,0.71175 -0.96274,1.4145 -2.08975,1.4145 -0.762,0 -1.43737,-0.45175 -1.43737,-1.47837 0,-1.64725 1.91187,-1.93475 3.60013,-1.89825 l 0,1.46475"
       style="fill:#ffffff;fill-opacity:1;fill-rule:evenodd;stroke:none"
       id="path2904" />
    <path
       d="m 261.82933,144.40051 c 0,-1.00838 0.0137,-1.71113 0.0637,-2.30875 l -1.35975,0 -0.05,1.273 -0.0412,0 c -0.38788,-0.69813 -1.17263,-1.451 -2.6465,-1.451 -1.962,0 -3.851,1.61525 -3.851,4.48987 0,2.34988 1.51025,4.1385 3.62287,4.1385 1.31413,0 2.24038,-0.62512 2.70125,-1.4145 l 0.0362,0 0,0.92625 c 0,2.15825 -1.1635,2.98413 -2.73775,2.98413 -1.06312,0 -1.93925,-0.32388 -2.5005,-0.68438 l -0.38775,1.18638 c 0.689,0.46087 1.81138,0.69812 2.82438,0.69812 1.07687,0 2.27687,-0.26012 3.1165,-1.00837 0.7985,-0.75288 1.20912,-1.92563 1.20912,-3.90138 l 0,-4.92787 z m -1.54687,2.56437 c 0,0.26463 -0.0412,0.56575 -0.12775,0.82588 -0.31025,0.9765 -1.17263,1.57412 -2.13538,1.57412 -1.65175,0 -2.51412,-1.387 -2.51412,-3.048 0,-1.9665 1.04938,-3.21225 2.53687,-3.21225 1.13626,0 1.87538,0.73463 2.14913,1.64725 0.0775,0.20075 0.0913,0.42438 0.0913,0.689 l 0,1.524"
       style="fill:#ffffff;fill-opacity:1;fill-rule:evenodd;stroke:none"
       id="path2906" />
    <path
       d="m 268.45458,141.91376 c -2.33612,0 -4.2115,1.6655 -4.2115,4.48987 0,2.6875 1.78863,4.37575 4.06101,4.37575 2.03962,0 4.23887,-1.378 4.23887,-4.51262 0,-2.59175 -1.65175,-4.353 -4.08838,-4.353 z m -0.0362,1.14987 c 1.82525,0 2.55075,1.816 2.55075,3.25325 0,1.91188 -1.11338,3.299 -2.58725,3.299 -1.50113,0 -2.56425,-1.40075 -2.56425,-3.2625 0,-1.6015 0.803,-3.28975 2.60075,-3.28975"
       style="fill:#ffffff;fill-opacity:1;fill-rule:evenodd;stroke:none"
       id="path2908" />
    <path
       d="m 273.89359,150.57863 6.87624,0 0,-1.22737 -4.95075,0 0,-0.0362 c 0.38788,-0.42438 0.72551,-0.86238 1.086,-1.33688 l 3.29901,-4.92337 0,-0.96275 -6.44738,0 0,1.22275 4.58575,0 0,0.0362 c -0.38788,0.45175 -0.23725,0.85325 -0.62512,1.3415 l -3.82375,4.99637 0,0.88975"
       style="fill:#ffffff;fill-opacity:1;fill-rule:nonzero;stroke:none"
       id="path2910" />
    <path
       d="m 288.81883,145.36326 c 0,-1.68825 -0.63887,-3.4495 -3.22599,-3.4495 -1.07225,0 -2.11263,0.30112 -2.81075,0.73912 l 0.34675,1.02213 c 0.60237,-0.397 1.42825,-0.6205 2.24037,-0.6205 1.72488,-0.0275 1.92563,1.25937 1.92563,1.94825 l 0,0.1735 c -3.28988,-0.0225 -5.115,1.09962 -5.115,3.15287 0,1.23663 0.88975,2.45025 2.60087,2.45025 1.21363,0 2.12625,-0.60225 2.60075,-1.2775 l 0.05,0 0.12375,1.07675 1.3735,0 c -0.0725,-0.57487 -0.11,-1.30037 -0.11,-2.03962 l 0,-3.17575 z m -1.48749,2.3545 c 0,0.13687 -0.0225,0.31025 -0.0725,0.49737 -0.251,0.71175 -0.96274,1.4145 -2.08987,1.4145 -0.77562,0 -1.43725,-0.45175 -1.43725,-1.47837 0,-1.64725 1.91188,-1.93475 3.60013,-1.89825 l 0,1.46475"
       style="fill:#ffffff;fill-opacity:1;fill-rule:evenodd;stroke:none"
       id="path2912" />
    <path
       d="m 218.70546,150.57863 9.63687,0 0,-1.27762 -7.62462,0 0,-0.0587 7.56525,-9.55013 0,-0.94 -9.59113,0 0,1.29138 7.58801,0 0,0.0462 -7.57438,9.60025 0,0.88975"
       style="fill:#ffffff;fill-opacity:1;fill-rule:nonzero;stroke:none"
       id="path2914" />
    <g
       style="fill:#ffffff"
       id="g2916"
       transform="matrix(1.250003,0,0,-1.250003,-1844.4087,3108.6803)">
      <g
         id="text2918"
         style="font-variant:normal;font-weight:bold;font-size:11.24279976px;font-family:'Myriad Roman';-inkscape-font-specification:Myriad-Bold;writing-mode:lr-tb;fill:#ffffff;fill-opacity:1;fill-rule:nonzero;stroke:none"
         transform="matrix(1,0,0,-1,1578.04,2396.1)">
        <path
           style="fill:#ffffff"
           id="path26239"
           d="m 7.070667,-4.3368222 -2.8216792,0 0,1.3339846 1.1692951,0 0,1.5974876 q -0.2250756,0.098814 -0.8289369,0.098814 -1.0595021,0 -1.7237496,-0.6587578 -0.6642474,-0.6313096 -0.6752267,-1.8225632 0.010979,-1.2351709 0.7301232,-1.8445219 0.6971853,-0.6093509 1.7896254,-0.6093509 0.6203302,0 1.0485228,0.093324 0.4117236,0.076855 0.7081646,0.2360549 l 0,0 0.3568272,-1.3833914 Q 6.2307508,-7.6196319 4.7210976,-7.6580594 2.8326585,-7.6470801 1.6414048,-6.6205159 0.45015116,-5.5994413 0.39525468,-3.700023 0.40623398,-1.9762734 1.4602465,-0.93324021 2.4868107,0.06587578 4.5399392,0.07685508 6.1593854,0.03293789 7.070667,-0.34584784 l 0,-3.99097436 z" />
        <path
           style="fill:#ffffff"
           id="path26241"
           d="m 13.200727,-2.201349 q 0.04392,-0.2250756 0.0549,-0.686206 0,-1.0704814 -0.554455,-1.888439 -0.570923,-0.8344266 -1.899418,-0.8563852 -1.4163295,0.032938 -2.0915562,0.9332402 -0.6807164,0.9003024 -0.6807164,2.0037217 0.032938,2.75031378 2.9314726,2.80521027 1.136357,0 1.992742,-0.34584785 L 12.728617,-1.3943707 q -0.664247,0.2360549 -1.520632,0.2360549 -0.603862,0 -1.043033,-0.2689928 -0.4391723,-0.2470341 -0.5050481,-0.7850197 l 3.5408231,0.010979 z M 9.643435,-3.3816234 q 0.038427,-0.3732961 0.2854617,-0.7356128 0.2470343,-0.3678065 0.7850193,-0.3787858 0.301931,0 0.494069,0.098814 0.181158,0.1262619 0.279972,0.296441 0.104303,0.1646895 0.14822,0.3568271 0.03294,0.203117 0.03294,0.3623168 l -2.02568,0 z" />
        <path
           style="fill:#ffffff"
           id="path26243"
           d="m 16.808887,0.12626191 q 1.147336,0 1.998232,-0.72463358 0.867364,-0.70816463 0.889323,-2.20134893 -0.01098,-1.2681088 -0.763061,-2.0476389 -0.752082,-0.7630611 -2.03666,-0.7740404 -1.350453,0.010979 -2.135473,0.7850197 -0.795999,0.7795301 -0.806978,2.1244939 0.01098,1.3394742 0.828937,2.08057674 0.785019,0.74110253 2.014701,0.75757147 l 0.01098,0 z m 0.01098,-1.22968121 q -0.543475,0 -0.823447,-0.4830891 -0.290951,-0.4501511 -0.290951,-1.1583158 0,-0.6477785 0.258013,-1.1473365 0.268993,-0.4940683 0.867364,-0.5050476 0.581903,0.010979 0.839917,0.5050476 0.247034,0.499558 0.247034,1.1363572 0,0.7411026 -0.279972,1.1912537 -0.290952,0.4611305 -0.806979,0.4611305 l -0.01098,0 z" />
        <path
           style="fill:#ffffff"
           id="path26245"
           d="m 25.947054,-3.8537331 q 0,-1.1692951 0.04392,-1.6414049 l -1.482205,0 -0.0549,0.6477785 -0.02196,0 q -0.203117,-0.3458478 -0.576413,-0.5599441 -0.356827,-0.2140963 -0.93324,-0.2140963 -1.032054,0.010979 -1.740218,0.7740404 -0.741103,0.7795301 -0.752082,2.1244939 0.01098,1.1912537 0.658757,1.92686659 0.63131,0.74110253 1.663364,0.75208182 0.971668,-0.01097929 1.487695,-0.70816463 l 0.02196,0 0,0.34584784 Q 24.250753,0.34584784 23.855498,0.69718534 23.449264,1.0430332 22.834424,1.0430332 22.340355,1.0320539 21.934121,0.91128162 21.505929,0.78501971 21.236936,0.63130956 l 0,0 -0.334869,1.30104664 q 0.806979,0.406234 1.976274,0.4172133 0.31291,0 0.62033,-0.043917 0.301931,-0.032938 0.581903,-0.1043033 0.290951,-0.076855 0.548965,-0.2140963 0.263503,-0.1317516 0.472109,-0.31291 0.867365,-0.8563851 0.845406,-2.47034171 l 0,-3.05773409 z m -1.70728,1.4053499 q 0,0.2360549 -0.0549,0.4611305 -0.09332,0.2909514 -0.329379,0.4830891 -0.236055,0.1976273 -0.581902,0.1976273 -0.532496,-0.010979 -0.823448,-0.4336822 -0.290951,-0.406234 -0.290951,-1.0265643 0,-0.7630611 0.323889,-1.169295 0.3184,-0.3897651 0.801489,-0.3897651 0.719144,0.021959 0.922261,0.7520818 0.03294,0.1537102 0.03294,0.31291 l 0,0.8124679 z" />
        <path
           style="fill:#ffffff"
           id="path26247"
           d="m 27.309211,0 1.707281,0 0,-2.777762 q 0,-0.2140963 0.03294,-0.3787858 0.203117,-0.8563851 1.169296,-0.8673644 0.268992,0 0.472109,0.043917 l 0,-1.608467 q -0.15371,-0.032938 -0.356827,-0.032938 -0.417213,0 -0.834426,0.2580135 -0.417214,0.2799721 -0.653269,0.889323 l -0.04392,0 -0.06588,-1.0210746 -1.460247,0 q 0.04392,0.6477785 0.04392,1.8060943 L 27.309211,0 Z" />
        <path
           style="fill:#ffffff"
           id="path26249"
           d="m 36.142947,-3.2498718 q 0.01098,-1.0100953 -0.505048,-1.6743427 -0.537986,-0.6862061 -1.899418,-0.6971854 -0.367807,0 -0.686206,0.032938 -0.334869,0.054896 -0.603862,0.1262619 -0.554454,0.1537102 -0.845406,0.3348686 l 0.31291,1.09244 0,0 q 0.609351,-0.3842754 1.520633,-0.406234 0.31291,0 0.516027,0.054896 0.203117,0.071365 0.301931,0.1811584 0.192137,0.2360549 0.181158,0.4721097 l 0,0.065876 q -1.471226,0 -2.33859,0.5105373 -0.878344,0.516027 -0.889323,1.591998 0,0.67522677 0.483089,1.16929512 0.46113,0.50504765 1.295557,0.52151659 1.010095,-0.0164689 1.575529,-0.67522674 l 0.03294,0 L 34.693679,0 36.236271,0 q -0.09332,-0.50504765 -0.09332,-1.3284949 l 0,-1.9213769 z m -1.652385,1.2461502 q 0,0.1591998 -0.03294,0.296441 -0.08783,0.2580134 -0.32389,0.4391718 -0.236055,0.1866481 -0.565434,0.1866481 -0.290951,0 -0.472109,-0.1646895 -0.197628,-0.1701791 -0.197628,-0.483089 0.01098,-0.4830891 0.47211,-0.6862061 0.433682,-0.1811584 1.119888,-0.1811584 l 0,0.5928821 z" />
        <path
           style="fill:#ffffff"
           id="path26251"
           d="m 39.405258,0 0,-4.2380085 1.09244,0 0,-1.2571295 -1.103419,0 0,-0.2854617 q 0,-0.4117236 0.203117,-0.6971853 0.181159,-0.2799721 0.592882,-0.2799721 0.340358,0 0.554455,0.082345 l 0.06588,-1.3175156 q -0.345847,-0.098814 -0.900302,-0.1152826 -0.378786,0 -0.77404,0.1152826 -0.406234,0.1372413 -0.752082,0.4391719 -0.351338,0.3458479 -0.521517,0.8289369 -0.07686,0.2360549 -0.109793,0.4940684 -0.0549,0.2635031 -0.0549,0.5215165 l 0,0.2140963 -0.730123,0 0,1.2571295 0.730123,0 0,4.2380085 1.70728,0 z" />
        <path
           style="fill:#ffffff"
           id="path26253"
           d="m 43.024529,0 0,-5.495138 -1.70728,0 0,5.495138 1.70728,0 z m -0.587392,-7.866666 -0.966178,1.7072806 1.169295,0 1.366922,-1.7072806 -1.570039,0 z" />
        <path
           style="fill:#ffffff"
           id="path26255"
           d="m 48.959423,-3.2498718 q 0.01098,-1.0100953 -0.505047,-1.6743427 -0.537986,-0.6862061 -1.899419,-0.6971854 -0.367806,0 -0.686206,0.032938 -0.334868,0.054896 -0.603861,0.1262619 -0.554454,0.1537102 -0.845406,0.3348686 l 0.31291,1.09244 0,0 q 0.609351,-0.3842754 1.520633,-0.406234 0.31291,0 0.516027,0.054896 0.203117,0.071365 0.30193,0.1811584 0.192138,0.2360549 0.181159,0.4721097 l 0,0.065876 q -1.471226,0 -2.33859,0.5105373 -0.878344,0.516027 -0.889323,1.591998 0,0.67522677 0.483089,1.16929512 0.46113,0.50504765 1.295557,0.52151659 1.010095,-0.0164689 1.575529,-0.67522674 l 0.03294,0 L 47.510156,0 49.052747,0 q -0.09332,-0.50504765 -0.09332,-1.3284949 l 0,-1.9213769 z m -1.652384,1.2461502 q 0,0.1591998 -0.03294,0.296441 -0.08783,0.2580134 -0.323889,0.4391718 -0.236055,0.1866481 -0.565434,0.1866481 -0.290951,0 -0.472109,-0.1646895 -0.197628,-0.1701791 -0.197628,-0.483089 0.01098,-0.4830891 0.47211,-0.6862061 0.433682,-0.1811584 1.119888,-0.1811584 l 0,0.5928821 z" />
        <path
           style="fill:#ffffff"
           id="path26257"
           d="m 51.950825,-5.495138 2.02568,5.02302824 q 0.06588,0.20311699 0.06588,0.27997207 0,0.11528261 -0.08783,0.24703417 -0.279972,0.43917187 -0.708164,0.68620604 -0.406234,0.22507558 -0.741103,0.29095138 l 0.356827,1.4437775 q 0.351338,-0.038428 0.774041,-0.2140963 0.428192,-0.1591998 0.878343,-0.5434752 0.461131,-0.389765 0.911282,-1.20223296 0.450151,-0.795999 1.021074,-2.39348664 l 1.284578,-3.6176783 -1.833542,0 -0.675227,2.6954174 q -0.120772,0.5270062 -0.247034,1.0210745 l -0.03294,0 q -0.1098,-0.483089 -0.269,-1.0210745 l -0.823447,-2.6954174 -1.899418,0 z" />
        <path
           style="fill:#ffffff"
           id="path26259"
           d="m 3.9690157,11.686062 q 3.606699,-0.07137 3.7110023,-3.9909743 0,-1.6194462 -0.9222609,-2.7118862 Q 5.8464755,3.8797821 4.0788087,3.8578236 2.3934867,3.8797821 1.40535,4.9832015 0.40623398,6.0866208 0.39525468,7.8268393 q 0,1.6523841 0.95519882,2.7338447 0.9222609,1.09793 2.6075829,1.125378 l 0.010979,0 z m 0.054896,-1.361433 Q 3.1565478,10.31365 2.684438,9.5835268 2.1903697,8.8643828 2.1903697,7.7829221 q 0,-1.09244 0.483089,-1.8225632 0.4830891,-0.7301233 1.3614328,-0.7411026 0.9003023,0.021959 1.3614328,0.7520819 0.4611305,0.7191439 0.4611305,1.778646 0,1.1363572 -0.4611305,1.8335426 Q 4.9242145,10.31365 4.0348915,10.324629 l -0.010979,0 z" />
        <path
           style="fill:#ffffff"
           id="path26261"
           d="m 8.7358867,11.5598 1.7072803,0 0,-2.7777619 q 0,-0.2140963 0.03294,-0.3787857 0.203117,-0.8563852 1.169295,-0.8673645 0.268993,0 0.47211,0.043917 l 0,-1.6084669 Q 11.963802,5.9384 11.760685,5.9384 q -0.417213,0 -0.834427,0.2580134 -0.417213,0.2799721 -0.653268,0.8893231 l -0.04392,0 -0.06588,-1.0210746 -1.4602461,0 Q 8.746866,6.7124407 8.746866,7.8707565 L 8.7358867,11.5598 Z" />
        <path
           style="fill:#ffffff"
           id="path26263"
           d="m 16.614422,3.5778515 0,2.980879 -0.02196,0 Q 16.202697,5.9603589 15.143195,5.9384003 14.1331,5.9493793 13.424935,6.7014614 12.71677,7.4700121 12.683832,8.8643828 q 0.01098,1.2900672 0.697186,2.0421492 0.647778,0.763061 1.652384,0.77953 0.548965,0 1.010095,-0.236055 0.450151,-0.236055 0.708165,-0.686206 l 0.03294,0 0.06588,0.795999 1.520633,0 q -0.04392,-0.631309 -0.04392,-1.6414047 l 0,-6.3405438 -1.71277,0 z m 0,5.5445448 q 0,0.1976273 -0.03294,0.3787857 -0.06588,0.3623168 -0.345848,0.587392 -0.268993,0.236055 -0.653268,0.236055 -0.527007,0 -0.845406,-0.417213 -0.323889,-0.3952547 -0.323889,-1.09244 0,-0.6752268 0.30193,-1.108909 0.290952,-0.4391718 0.878344,-0.4501511 0.406234,0.010979 0.675227,0.2360548 0.258013,0.2250756 0.323889,0.5928821 0.02196,0.1591998 0.02196,0.3183996 l 0,0.7191439 z" />
        <path
           style="fill:#ffffff"
           id="path26265"
           d="m 24.544562,9.3584512 q 0.04392,-0.2250756 0.0549,-0.6862061 0,-1.0704814 -0.554454,-1.888439 -0.570923,-0.8344265 -1.899418,-0.8563851 -1.41633,0.032938 -2.091556,0.9332402 -0.680717,0.9003023 -0.680717,2.0037216 0.03294,2.7503142 2.931472,2.8052102 1.136358,0 1.992743,-0.345848 l -0.225076,-1.158316 q -0.664247,0.236055 -1.520632,0.236055 -0.603862,0 -1.043034,-0.268992 -0.439171,-0.2470346 -0.505047,-0.7850201 l 3.540823,0.010979 z M 20.98727,8.1781768 q 0.03843,-0.3732961 0.285462,-0.7356129 0.247034,-0.3678064 0.785019,-0.3787857 0.301931,0 0.494069,0.098814 0.181158,0.126262 0.279972,0.2964411 0.104303,0.1646894 0.14822,0.3568271 0.03294,0.203117 0.03294,0.3623168 l -2.02568,0 z" />
        <path
           style="fill:#ffffff"
           id="path26267"
           d="m 25.611015,11.5598 1.70728,0 0,-3.1675269 q 0,-0.2525239 0.0549,-0.4281926 0.104303,-0.2470342 0.318399,-0.4501512 0.214097,-0.1811584 0.559944,-0.1921377 0.461131,0 0.675227,0.31291 0.192138,0.3293789 0.192138,0.8783437 l 0,3.0467547 1.70728,0 0,-3.2498717 q -0.01098,-1.2132122 -0.548964,-1.795115 -0.554455,-0.576413 -1.41633,-0.576413 -0.686206,0.010979 -1.103419,0.3019306 -0.428193,0.296441 -0.592882,0.5873924 l -0.03843,0 -0.07685,-0.7630611 -1.482205,0 q 0.04392,0.7301232 0.04392,1.7511978 l 0,3.74394 z" />
        <path
           style="fill:#ffffff"
           id="path26269"
           d="m 36.761122,8.3099283 q 0.01098,-1.0100952 -0.505048,-1.6743427 -0.537985,-0.686206 -1.899418,-0.6971853 -0.367806,0 -0.686206,0.032938 -0.334869,0.054896 -0.603861,0.1262619 -0.554455,0.1537101 -0.845406,0.3348685 l 0.31291,1.09244 0,0 q 0.609351,-0.3842753 1.520632,-0.4062339 0.31291,0 0.516027,0.054896 0.203117,0.071365 0.301931,0.1811584 0.192138,0.2360549 0.181158,0.4721098 l 0,0.065876 q -1.471225,0 -2.33859,0.5105373 -0.878343,0.5160269 -0.889323,1.591998 0,0.6752267 0.483089,1.1692947 0.461131,0.505048 1.295557,0.521517 1.010096,-0.01647 1.575529,-0.675227 l 0.03294,0 0.09881,0.548965 1.542591,0 q -0.09332,-0.505047 -0.09332,-1.328495 l 0,-1.9213768 z m -1.652384,1.2461502 q 0,0.1591998 -0.03294,0.296441 -0.08783,0.2580135 -0.323889,0.4391715 -0.236055,0.186648 -0.565434,0.186648 -0.290951,0 -0.47211,-0.164689 -0.197627,-0.170179 -0.197627,-0.4830891 0.01098,-0.483089 0.47211,-0.686206 0.433682,-0.1811584 1.119888,-0.1811584 l 0,0.592882 z" />
        <path
           style="fill:#ffffff"
           id="path26271"
           d="m 42.038135,10.165429 q -0.384276,0.181159 -0.982647,0.181159 -0.636799,0 -1.054013,-0.4062341 -0.450151,-0.3952547 -0.450151,-1.1473365 0.01098,-0.6971853 0.406234,-1.1143986 0.378786,-0.4117236 1.064992,-0.4227029 0.340358,0 0.576413,0.043917 0.236055,0.054896 0.378786,0.1207722 l 0.274482,-1.2681087 q -0.587392,-0.2140963 -1.306536,-0.2140963 -1.542591,0.021959 -2.33859,0.8563851 -0.806979,0.8179576 -0.806979,2.0695974 0.0549,2.7612934 2.909514,2.8216794 1.021075,-0.01647 1.526122,-0.263503 l -0.197627,-1.25713 z" />
        <path
           style="fill:#ffffff"
           id="path26273"
           d="m 44.879948,11.5598 0,-5.4951378 -1.70728,0 0,5.4951378 1.70728,0 z M 44.029053,5.3455183 q 0.46113,0 0.719144,-0.2744825 0.247034,-0.2580134 0.247034,-0.6367992 0,-0.4062339 -0.258014,-0.6642474 -0.263503,-0.2470342 -0.697185,-0.2470342 -0.439172,0 -0.697185,0.2470342 -0.274483,0.2580135 -0.274483,0.6642474 0,0.3787858 0.274483,0.6367992 0.247034,0.2744825 0.675227,0.2744825 l 0.01098,0 z" />
        <path
           style="fill:#ffffff"
           id="path26275"
           d="m 48.783673,11.686062 q 1.147336,0 1.998232,-0.724634 0.867364,-0.708164 0.889323,-2.2013485 -0.01098,-1.2681088 -0.763061,-2.0476388 -0.752082,-0.7630611 -2.03666,-0.7740404 -1.350453,0.010979 -2.135473,0.7850197 -0.795999,0.77953 -0.806978,2.1244939 0.01098,1.3394741 0.828936,2.0805771 0.78502,0.741102 2.014701,0.757571 l 0.01098,0 z m 0.01098,-1.229681 q -0.543475,0 -0.823447,-0.4830892 -0.290952,-0.4501512 -0.290952,-1.1583158 0,-0.6477785 0.258014,-1.1473365 0.268993,-0.4940684 0.867364,-0.5050477 0.581903,0.010979 0.839916,0.5050477 0.247035,0.499558 0.247035,1.1363572 0,0.7411025 -0.279972,1.1912537 -0.290952,0.4611306 -0.806979,0.4611306 l -0.01098,0 z m 0.290951,-6.7632469 -0.966178,1.7072806 1.169295,0 1.366923,-1.7072806 -1.57004,0 z" />
        <path
           style="fill:#ffffff"
           id="path26277"
           d="m 52.717654,11.5598 1.707281,0 0,-3.1675269 q 0,-0.2525239 0.0549,-0.4281926 0.104303,-0.2470342 0.318399,-0.4501512 0.214096,-0.1811584 0.559944,-0.1921377 0.461131,0 0.675227,0.31291 0.192138,0.3293789 0.192138,0.8783437 l 0,3.0467547 1.70728,0 0,-3.2498717 q -0.01098,-1.2132122 -0.548965,-1.795115 -0.554454,-0.576413 -1.416329,-0.576413 -0.686206,0.010979 -1.103419,0.3019306 -0.428193,0.296441 -0.592882,0.5873924 l -0.03843,0 -0.07685,-0.7630611 -1.482205,0 q 0.04392,0.7301232 0.04392,1.7511978 l 0,3.74394 z" />
        <path
           style="fill:#ffffff"
           id="path26279"
           d="m 65.172201,3.5778515 0,2.980879 -0.02196,0 q -0.389765,-0.5983716 -1.449267,-0.6203302 -1.010095,0.010979 -1.71826,0.7630611 -0.708164,0.7685507 -0.741102,2.1629214 0.01098,1.2900672 0.697185,2.0421492 0.647779,0.763061 1.652384,0.77953 0.548965,0 1.010096,-0.236055 0.450151,-0.236055 0.708164,-0.686206 l 0.03294,0 0.06588,0.795999 1.520632,0 q -0.04392,-0.631309 -0.04392,-1.6414047 l 0,-6.3405438 -1.71277,0 z m 0,5.5445448 q 0,0.1976273 -0.03294,0.3787857 -0.06588,0.3623168 -0.345848,0.587392 -0.268993,0.236055 -0.653268,0.236055 -0.527006,0 -0.845406,-0.417213 -0.323889,-0.3952547 -0.323889,-1.09244 0,-0.6752268 0.301931,-1.108909 0.290951,-0.4391718 0.878343,-0.4501511 0.406234,0.010979 0.675227,0.2360548 0.258014,0.2250756 0.323889,0.5928821 0.02196,0.1591998 0.02196,0.3183996 l 0,0.7191439 z" />
        <path
           style="fill:#ffffff"
           id="path26281"
           d="m 73.102337,9.3584512 q 0.04392,-0.2250756 0.0549,-0.6862061 0,-1.0704814 -0.554455,-1.888439 -0.570923,-0.8344265 -1.899418,-0.8563851 -1.416329,0.032938 -2.091556,0.9332402 -0.680716,0.9003023 -0.680716,2.0037216 0.03294,2.7503142 2.931472,2.8052102 1.136357,0 1.992742,-0.345848 l -0.225075,-1.158316 q -0.664248,0.236055 -1.520633,0.236055 -0.603861,0 -1.043033,-0.268992 Q 69.62739,9.8854574 69.561514,9.3474719 l 3.540823,0.010979 z M 69.545045,8.1781768 q 0.03843,-0.3732961 0.285462,-0.7356129 0.247034,-0.3678064 0.78502,-0.3787857 0.30193,0 0.494068,0.098814 0.181159,0.126262 0.279972,0.2964411 0.104304,0.1646894 0.148221,0.3568271 0.03294,0.203117 0.03294,0.3623168 l -2.025681,0 z" />
        <path
           style="fill:#ffffff"
           id="path26283"
           d="m 74.168796,11.5598 1.70728,0 0,-7.9819485 -1.70728,0 0,7.9819485 z" />
        <path
           style="fill:#ffffff"
           id="path26285"
           d="m 81.024027,11.5598 1.71277,0 0,-6.1374267 2.069598,0 0,-1.4382878 -5.824517,0 0,1.4382878 2.042149,0 0,6.1374267 z" />
        <path
           style="fill:#ffffff"
           id="path26287"
           d="m 90.505536,9.3584512 q 0.04392,-0.2250756 0.0549,-0.6862061 0,-1.0704814 -0.554454,-1.888439 -0.570924,-0.8344265 -1.899419,-0.8563851 -1.416329,0.032938 -2.091556,0.9332402 -0.680716,0.9003023 -0.680716,2.0037216 0.03294,2.7503142 2.931472,2.8052102 1.136357,0 1.992743,-0.345848 L 90.03343,10.165429 q -0.664247,0.236055 -1.520633,0.236055 -0.603861,0 -1.043033,-0.268992 -0.439172,-0.2470346 -0.505047,-0.7850201 l 3.540823,0.010979 z M 86.948244,8.1781768 q 0.03843,-0.3732961 0.285461,-0.7356129 0.247034,-0.3678064 0.78502,-0.3787857 0.301931,0 0.494068,0.098814 0.181159,0.126262 0.279972,0.2964411 0.104304,0.1646894 0.148221,0.3568271 0.03294,0.203117 0.03294,0.3623168 l -2.02568,0 z" />
        <path
           style="fill:#ffffff"
           id="path26289"
           d="m 91.571986,11.5598 1.707281,0 0,-2.7777619 q 0,-0.2140963 0.03294,-0.3787857 0.203117,-0.8563852 1.169295,-0.8673645 0.268993,0 0.47211,0.043917 l 0,-1.6084669 Q 94.799902,5.9384 94.596785,5.9384 q -0.417214,0 -0.834427,0.2580134 -0.417213,0.2799721 -0.653268,0.8893231 l -0.04392,0 -0.06588,-1.0210746 -1.460247,0 q 0.04392,0.6477785 0.04392,1.8060943 L 91.571986,11.5598 Z" />
        <path
           style="fill:#ffffff"
           id="path26291"
           d="m 95.832843,11.5598 1.707281,0 0,-2.7777619 q 0,-0.2140963 0.03294,-0.3787857 0.203117,-0.8563852 1.169295,-0.8673645 0.268992,0 0.472109,0.043917 l 0,-1.6084669 Q 99.060758,5.9384 98.857641,5.9384 q -0.417213,0 -0.834426,0.2580134 -0.417214,0.2799721 -0.653268,0.8893231 l -0.04392,0 -0.06587,-1.0210746 -1.460247,0 q 0.04392,0.6477785 0.04392,1.8060943 L 95.832843,11.5598 Z" />
        <path
           style="fill:#ffffff"
           id="path26293"
           d="m 101.80098,11.5598 0,-5.4951378 -1.70728,0 0,5.4951378 1.70728,0 z m -0.8509,-6.2142817 q 0.46114,0 0.71915,-0.2744825 0.24703,-0.2580134 0.24703,-0.6367992 0,-0.4062339 -0.25801,-0.6642474 -0.2635,-0.2470342 -0.69719,-0.2470342 -0.43917,0 -0.69718,0.2470342 -0.274484,0.2580135 -0.274484,0.6642474 0,0.3787858 0.274484,0.6367992 0.24703,0.2744825 0.67523,0.2744825 l 0.011,0 z" />
        <path
           style="fill:#ffffff"
           id="path26295"
           d="m 105.0734,4.5659882 -1.67435,0.4611304 0,1.0375436 -0.73012,0 0,1.2571294 0.73012,0 0,2.2617352 q 0,1.1418472 0.47211,1.6304252 0.45015,0.455641 1.29007,0.47211 0.74659,-0.01647 1.10342,-0.14822 l -0.011,-1.295557 q -0.19214,0.04941 -0.50505,0.04941 -0.69718,0.01098 -0.67522,-0.9716674 l 0,-1.998232 1.22419,0 0,-1.2571294 -1.22419,0 0,-1.498674 0,0 z" />
        <path
           style="fill:#ffffff"
           id="path26297"
           d="m 109.82012,11.686062 q 1.14734,0 1.99823,-0.724634 0.86737,-0.708164 0.88933,-2.2013485 -0.011,-1.2681088 -0.76306,-2.0476388 -0.75209,-0.7630611 -2.03666,-0.7740404 -1.35046,0.010979 -2.13548,0.7850197 -0.796,0.77953 -0.80698,2.1244939 0.011,1.3394741 0.82894,2.0805771 0.78502,0.741102 2.0147,0.757571 l 0.011,0 z m 0.011,-1.229681 q -0.54347,0 -0.82345,-0.4830892 -0.29095,-0.4501512 -0.29095,-1.1583158 0,-0.6477785 0.25802,-1.1473365 0.26899,-0.4940684 0.86736,-0.5050477 0.5819,0.010979 0.83992,0.5050477 0.24703,0.499558 0.24703,1.1363572 0,0.7411025 -0.27997,1.1912537 -0.29095,0.4611306 -0.80698,0.4611306 l -0.011,0 z" />
        <path
           style="fill:#ffffff"
           id="path26299"
           d="m 113.75392,11.5598 1.70729,0 0,-2.7777619 q 0,-0.2140963 0.0329,-0.3787857 0.20312,-0.8563852 1.1693,-0.8673645 0.26899,0 0.47211,0.043917 l 0,-1.6084669 Q 116.98181,5.9384 116.77869,5.9384 q -0.41721,0 -0.83443,0.2580134 -0.41721,0.2799721 -0.65326,0.8893231 l -0.0439,0 -0.0659,-1.0210746 -1.46024,0 q 0.0439,0.6477785 0.0439,1.8060943 l -0.011,3.6890438 z" />
        <path
           style="fill:#ffffff"
           id="path26301"
           d="m 119.72207,11.5598 0,-5.4951378 -1.70728,0 0,5.4951378 1.70728,0 z m -0.8509,-6.2142817 q 0.46113,0 0.71915,-0.2744825 0.24703,-0.2580134 0.24703,-0.6367992 0,-0.4062339 -0.25801,-0.6642474 -0.2635,-0.2470342 -0.69719,-0.2470342 -0.43917,0 -0.69718,0.2470342 -0.27448,0.2580135 -0.27448,0.6642474 0,0.3787858 0.27448,0.6367992 0.24703,0.2744825 0.67522,0.2744825 l 0.011,0 z" />
        <path
           style="fill:#ffffff"
           id="path26303"
           d="m 123.62579,11.686062 q 1.14733,0 1.99823,-0.724634 0.86736,-0.708164 0.88932,-2.2013485 -0.011,-1.2681088 -0.76306,-2.0476388 -0.75208,-0.7630611 -2.03666,-0.7740404 -1.35045,0.010979 -2.13547,0.7850197 -0.796,0.77953 -0.80698,2.1244939 0.011,1.3394741 0.82894,2.0805771 0.78502,0.741102 2.0147,0.757571 l 0.011,0 z m 0.011,-1.229681 q -0.54348,0 -0.82345,-0.4830892 -0.29095,-0.4501512 -0.29095,-1.1583158 0,-0.6477785 0.25801,-1.1473365 0.26899,-0.4940684 0.86736,-0.5050477 0.58191,0.010979 0.83992,0.5050477 0.24704,0.499558 0.24704,1.1363572 0,0.7411025 -0.27998,1.1912537 -0.29095,0.4611306 -0.80698,0.4611306 l -0.011,0 z" />
        <path
           style="fill:#ffffff"
           id="path26305"
           d="m 0.74110252,-12.063238 q 0.62033028,0.09881 1.94333548,0.109793 2.2727144,0 3.5078853,-0.977157 1.202233,-0.911282 1.2516398,-3.068714 -0.021959,-2.009211 -1.2845777,-2.876576 -1.0100953,-0.801488 -3.1126306,-0.785019 -1.3175156,0 -2.30565228,0.164689 l 0,7.432984 z M 2.4483832,-18.28301 q 0.2250755,-0.0549 0.77953,-0.06587 2.3605488,-0.01098 2.404466,2.404466 -0.065876,2.689927 -2.5856244,2.656989 -0.3348685,0.01098 -0.5983716,-0.03843 l 0,-4.957153 z" />
        <path
           style="fill:#ffffff"
           id="path26307"
           d="m 13.357948,-14.231649 q 0.04392,-0.225076 0.0549,-0.686206 0,-1.070482 -0.554454,-1.888439 -0.570923,-0.834427 -1.899418,-0.856385 -1.4163296,0.03294 -2.0915564,0.93324 -0.6807164,0.900302 -0.6807164,2.003722 0.032938,2.750313 2.9314718,2.80521 1.136358,0 1.992743,-0.345848 l -0.225076,-1.158316 q -0.664247,0.236055 -1.520632,0.236055 -0.603862,0 -1.043034,-0.268993 -0.4391715,-0.247034 -0.5050472,-0.785019 l 3.5408232,0.01098 z m -3.5572922,-1.180275 q 0.038428,-0.373296 0.2854622,-0.735612 0.247034,-0.367807 0.785019,-0.378786 0.301931,0 0.494069,0.09881 0.181158,0.126261 0.279972,0.296441 0.104303,0.164689 0.14822,0.356827 0.03294,0.203117 0.03294,0.362316 l -2.0256802,0 z" />
        <path
           style="fill:#ffffff"
           id="path26309"
           d="m 14.424401,-9.8069926 1.70728,0 0,-2.7283554 0.02196,0 q 0.406234,0.603862 1.427308,0.63131 0.966178,0 1.72375,-0.735613 0.752082,-0.719144 0.77404,-2.212328 -0.02196,-1.328495 -0.686206,-2.069598 -0.653268,-0.719144 -1.597487,-0.730123 -1.213213,0.01098 -1.833543,0.889323 l -0.02196,0 -0.07686,-0.763061 -1.482205,0 q 0.04392,0.763061 0.04392,1.839032 l 0,5.8794134 z m 1.70728,-5.3359384 q 0,-0.1592 0.03294,-0.30742 0.09332,-0.389765 0.384275,-0.62582 0.279972,-0.225076 0.642289,-0.236055 0.570924,0.01098 0.872854,0.428193 0.285462,0.433682 0.285462,1.108909 0,0.697185 -0.30742,1.114398 -0.31291,0.439172 -0.872854,0.439172 -0.373296,0 -0.63131,-0.236055 -0.279972,-0.225075 -0.373296,-0.576413 -0.03294,-0.164689 -0.03294,-0.356827 l 0,-0.752082 z" />
        <path
           style="fill:#ffffff"
           id="path26311"
           d="m 25.709421,-15.280172 q 0.01098,-1.010095 -0.505047,-1.674343 -0.537986,-0.686206 -1.899419,-0.697185 -0.367806,0 -0.686206,0.03294 -0.334868,0.0549 -0.603861,0.126262 -0.554454,0.15371 -0.845406,0.334868 l 0.31291,1.09244 0,0 q 0.609351,-0.384275 1.520633,-0.406234 0.31291,0 0.516027,0.0549 0.203117,0.07137 0.30193,0.181158 0.192138,0.236055 0.181159,0.47211 l 0,0.06588 q -1.471226,0 -2.33859,0.510537 -0.878344,0.516027 -0.889323,1.591998 0,0.675227 0.483089,1.169295 0.46113,0.505048 1.295557,0.521517 1.010095,-0.01647 1.575529,-0.675227 l 0.03294,0 0.09881,0.548965 1.542591,0 q -0.09332,-0.505048 -0.09332,-1.328495 l 0,-1.921377 z m -1.652384,1.24615 q 0,0.1592 -0.03294,0.296441 -0.08783,0.258014 -0.323889,0.439172 -0.236055,0.186648 -0.565434,0.186648 -0.290951,0 -0.472109,-0.164689 -0.197628,-0.170179 -0.197628,-0.483089 0.01098,-0.483089 0.47211,-0.686206 0.433682,-0.181159 1.119888,-0.181159 l 0,0.592882 z" />
        <path
           style="fill:#ffffff"
           id="path26313"
           d="m 27.062226,-12.0303 1.707281,0 0,-2.777762 q 0,-0.214096 0.03294,-0.378786 0.203117,-0.856385 1.169295,-0.867364 0.268993,0 0.47211,0.04392 l 0,-1.608467 q -0.15371,-0.03294 -0.356827,-0.03294 -0.417214,0 -0.834427,0.258013 -0.417213,0.279973 -0.653268,0.889323 l -0.04392,0 -0.06588,-1.021074 -1.460246,0 q 0.04392,0.647778 0.04392,1.806094 l -0.01098,3.689044 z" />
        <path
           style="fill:#ffffff"
           id="path26315"
           d="m 33.233481,-19.024112 -1.674343,0.46113 0,1.037544 -0.730123,0 0,1.257129 0.730123,0 0,2.261735 q 0,1.141847 0.47211,1.630426 0.450151,0.455641 1.290067,0.47211 0.746592,-0.01647 1.103419,-0.148221 l -0.01098,-1.295557 q -0.192138,0.04941 -0.505048,0.04941 -0.697185,0.01098 -0.675226,-0.971668 l 0,-1.998232 1.224191,0 0,-1.257129 -1.224191,0 0,-1.498674 0,0 z" />
        <path
           style="fill:#ffffff"
           id="path26317"
           d="m 40.010304,-15.280172 q 0.01098,-1.010095 -0.505048,-1.674343 -0.537985,-0.686206 -1.899418,-0.697185 -0.367807,0 -0.686206,0.03294 -0.334869,0.0549 -0.603862,0.126262 -0.554454,0.15371 -0.845405,0.334868 l 0.31291,1.09244 0,0 q 0.609351,-0.384275 1.520632,-0.406234 0.31291,0 0.516027,0.0549 0.203117,0.07137 0.301931,0.181158 0.192137,0.236055 0.181158,0.47211 l 0,0.06588 q -1.471226,0 -2.33859,0.510537 -0.878344,0.516027 -0.889323,1.591998 0,0.675227 0.483089,1.169295 0.46113,0.505048 1.295557,0.521517 1.010095,-0.01647 1.575529,-0.675227 l 0.03294,0 0.09881,0.548965 1.542591,0 q -0.09332,-0.505048 -0.09332,-1.328495 l 0,-1.921377 z m -1.652384,1.24615 q 0,0.1592 -0.03294,0.296441 -0.08783,0.258014 -0.323889,0.439172 -0.236055,0.186648 -0.565434,0.186648 -0.290952,0 -0.47211,-0.164689 -0.197627,-0.170179 -0.197627,-0.483089 0.01098,-0.483089 0.472109,-0.686206 0.433683,-0.181159 1.119889,-0.181159 l 0,0.592882 z" />
        <path
           style="fill:#ffffff"
           id="path26319"
           d="m 41.36222,-12.0303 1.663363,0 0,-3.194975 q -0.01098,-0.225076 0.06588,-0.433683 0.08234,-0.214096 0.279972,-0.417213 0.203117,-0.181158 0.521517,-0.192138 0.411723,0 0.61484,0.31291 0.181159,0.3184 0.181159,0.845406 l 0,3.079693 1.663363,0 0,-3.216934 q 0,-0.225076 0.0549,-0.428193 0.104303,-0.258013 0.30742,-0.422703 0.192138,-0.159199 0.494068,-0.170179 0.806979,0.02196 0.806979,1.25713 l 0,2.980879 1.663363,0 0,-3.238893 q -0.01098,-1.224191 -0.516027,-1.806094 -0.527006,-0.576413 -1.339474,-0.576413 -0.592882,0.01098 -1.043033,0.268993 -0.406234,0.236055 -0.719144,0.675226 l -0.02196,0 q -0.395254,-0.92226 -1.509653,-0.944219 -0.686206,0.01098 -1.08695,0.290951 -0.203117,0.137242 -0.340358,0.296441 -0.131752,0.153711 -0.236055,0.290952 l -0.03294,0 -0.06588,-0.752082 -1.449267,0 q 0.04392,0.730123 0.04392,1.751198 l 0,3.74394 z" />
        <path
           style="fill:#ffffff"
           id="path26321"
           d="m 55.87867,-14.231649 q 0.04392,-0.225076 0.0549,-0.686206 0,-1.070482 -0.554455,-1.888439 -0.570923,-0.834427 -1.899418,-0.856385 -1.416329,0.03294 -2.091556,0.93324 -0.680716,0.900302 -0.680716,2.003722 0.03294,2.750313 2.931472,2.80521 1.136357,0 1.992742,-0.345848 l -0.225075,-1.158316 q -0.664248,0.236055 -1.520633,0.236055 -0.603861,0 -1.043033,-0.268993 -0.439172,-0.247034 -0.505048,-0.785019 l 3.540823,0.01098 z m -3.557292,-1.180275 q 0.03843,-0.373296 0.285462,-0.735612 0.247034,-0.367807 0.78502,-0.378786 0.30193,0 0.494068,0.09881 0.181158,0.126261 0.279972,0.296441 0.104303,0.164689 0.148221,0.356827 0.03294,0.203117 0.03294,0.362316 l -2.02568,0 z" />
        <path
           style="fill:#ffffff"
           id="path26323"
           d="m 56.945125,-12.0303 1.70728,0 0,-3.167527 q 0,-0.252524 0.0549,-0.428193 0.104303,-0.247034 0.3184,-0.450151 0.214096,-0.181158 0.559944,-0.192138 0.46113,0 0.675226,0.31291 0.192138,0.329379 0.192138,0.878344 l 0,3.046755 1.707281,0 0,-3.249872 q -0.01098,-1.213212 -0.548965,-1.795115 Q 61.056874,-17.6517 60.195,-17.6517 q -0.686206,0.01098 -1.10342,0.301931 -0.428192,0.296441 -0.592882,0.587392 l -0.03843,0 -0.07686,-0.763061 -1.482205,0 q 0.04392,0.730123 0.04392,1.751198 l 0,3.74394 z" />
        <path
           style="fill:#ffffff"
           id="path26325"
           d="m 65.432751,-19.024112 -1.674343,0.46113 0,1.037544 -0.730123,0 0,1.257129 0.730123,0 0,2.261735 q 0,1.141847 0.47211,1.630426 0.450151,0.455641 1.290067,0.47211 0.746593,-0.01647 1.10342,-0.148221 l -0.01098,-1.295557 q -0.192137,0.04941 -0.505047,0.04941 -0.697186,0.01098 -0.675227,-0.971668 l 0,-1.998232 1.224192,0 0,-1.257129 -1.224192,0 0,-1.498674 0,0 z" />
        <path
           style="fill:#ffffff"
           id="path26327"
           d="m 70.178406,-11.904038 q 1.147337,0 1.998232,-0.724634 0.867364,-0.708164 0.889323,-2.201349 -0.01098,-1.268109 -0.763061,-2.047639 -0.752082,-0.763061 -2.03666,-0.77404 -1.350453,0.01098 -2.135473,0.78502 -0.795999,0.77953 -0.806978,2.124494 0.01098,1.339474 0.828937,2.080576 0.78502,0.741103 2.014701,0.757572 l 0.01098,0 z m 0.01098,-1.229681 q -0.543475,0 -0.823447,-0.48309 -0.290951,-0.450151 -0.290951,-1.158315 0,-0.647779 0.258013,-1.147337 0.268993,-0.494068 0.867365,-0.505047 0.581902,0.01098 0.839916,0.505047 0.247034,0.499558 0.247034,1.136357 0,0.741103 -0.279972,1.191254 -0.290951,0.461131 -0.806978,0.461131 l -0.01098,0 z" />
        <path
           style="fill:#ffffff"
           id="path26329"
           d="m 79.989706,-20.012249 0,2.980879 -0.02196,0 q -0.389765,-0.598371 -1.449267,-0.62033 -1.010095,0.01098 -1.71826,0.763061 -0.708164,0.768551 -0.741102,2.162922 0.01098,1.290067 0.697185,2.042149 0.647778,0.763061 1.652384,0.77953 0.548965,0 1.010095,-0.236055 0.450152,-0.236055 0.708165,-0.686206 l 0.03294,0 0.06588,0.795999 1.520632,0 q -0.04392,-0.63131 -0.04392,-1.641405 l 0,-6.340544 -1.71277,0 z m 0,5.544545 q 0,0.197627 -0.03294,0.378786 -0.06588,0.362317 -0.345848,0.587392 -0.268993,0.236055 -0.653268,0.236055 -0.527006,0 -0.845406,-0.417213 -0.323889,-0.395255 -0.323889,-1.09244 0,-0.675227 0.30193,-1.108909 0.290952,-0.439172 0.878344,-0.450151 0.406234,0.01098 0.675227,0.236054 0.258013,0.225076 0.323889,0.592882 0.02196,0.1592 0.02196,0.3184 l 0,0.719144 z" />
        <path
           style="fill:#ffffff"
           id="path26331"
           d="m 87.919842,-14.231649 q 0.04392,-0.225076 0.0549,-0.686206 0,-1.070482 -0.554455,-1.888439 -0.570923,-0.834427 -1.899418,-0.856385 -1.416329,0.03294 -2.091556,0.93324 -0.680716,0.900302 -0.680716,2.003722 0.03294,2.750313 2.931472,2.80521 1.136357,0 1.992742,-0.345848 l -0.225075,-1.158316 q -0.664248,0.236055 -1.520633,0.236055 -0.603861,0 -1.043033,-0.268993 -0.439172,-0.247034 -0.505048,-0.785019 l 3.540823,0.01098 z m -3.557292,-1.180275 q 0.03843,-0.373296 0.285462,-0.735612 0.247034,-0.367807 0.78502,-0.378786 0.30193,0 0.494068,0.09881 0.181158,0.126261 0.279972,0.296441 0.104303,0.164689 0.148221,0.356827 0.03294,0.203117 0.03294,0.362316 l -2.02568,0 z" />
      </g>
    </g>
    <path
       d="m 70.594214,150.76576 1.17262,0 0,-5.21538 -0.99925,0 -1.38712,0.63875 0.20075,0.91263 0.98562,-0.4745 0.0275,0 0,4.1385"
       style="fill:#ffffff;fill-opacity:1;fill-rule:evenodd;stroke:none"
       id="path2926" />
    <path
       d="m 78.880334,145.55038 -2.86087,0 -0.33775,2.72863 c 0.21,-0.0412 0.41075,-0.05 0.69812,-0.05 1.04038,0 1.46475,0.324 1.46475,0.8715 0,0.55212 -0.53837,0.80312 -1.0495,0.80312 -0.46537,0 -0.93987,-0.15062 -1.1635,-0.26462 l -0.22812,0.9125 c 0.292,0.15062 0.82587,0.30112 1.451,0.30112 1.40075,0 2.24037,-0.86237 2.24037,-1.83875 0,-0.6115 -0.23725,-1.0495 -0.63887,-1.30962 -0.365,-0.26463 -0.86238,-0.37863 -1.36425,-0.37863 -0.13688,0 -0.22363,0.0137 -0.33763,0.0137 l 0.11375,-0.78937 2.01225,0 0,-0.99925"
       style="fill:#ffffff;fill-opacity:1;fill-rule:evenodd;stroke:none"
       id="path2928" />
    <path
       d="m 82.754214,148.60288 0.0137,-0.0138 0.689,-1.13612 c 0.17337,-0.33775 0.324,-0.63888 0.48362,-0.9765 l 0.0275,0 c -0.0137,0.33762 -0.0275,0.66162 -0.0275,0.9765 l 0,1.14975 -1.18637,0 z m 2.34075,2.16288 0,-1.25025 0.6115,0 0,-0.91263 -0.6115,0 0,-3.0525 -1.50113,0 -1.962,3.17575 0,0.78938 2.30875,0 0,1.25025 1.15438,0"
       style="fill:#ffffff;fill-opacity:1;fill-rule:evenodd;stroke:none"
       id="path2930" />
    <path
       d="m 91.857214,150.76576 0,-1.013 -1.97575,0 0,-0.0138 0.48825,-0.40163 c 0.762,-0.67075 1.38712,-1.37337 1.38712,-2.2495 0,-0.93537 -0.63887,-1.62437 -1.82512,-1.62437 -0.70275,0 -1.31413,0.24187 -1.702,0.5385 l 0.33762,0.86237 c 0.27838,-0.20075 0.66163,-0.42437 1.12713,-0.42437 0.59762,0 0.835,0.33762 0.835,0.762 0,0.61137 -0.56125,1.18637 -1.6975,2.213 l -0.66163,0.61137 0,0.73925 3.68688,0"
       style="fill:#ffffff;fill-opacity:1;fill-rule:evenodd;stroke:none"
       id="path2932" />
    <path
       d="m 84.917084,116.99126 c 0,-0.41525 -0.324,-0.73925 -0.73462,-0.73925 -0.41525,0 -0.73925,0.324 -0.73925,0.73925 0,0.41062 0.324,0.73462 0.73925,0.73462 0.41062,0 0.73462,-0.324 0.73462,-0.73462 z m -7.18662,0.73462 c 0.41075,0 0.75287,-0.324 0.75287,-0.73462 0,-0.41525 -0.34212,-0.73925 -0.75287,-0.73925 -0.41513,0 -0.73913,0.324 -0.73913,0.73925 0,0.41062 0.324,0.73462 0.73913,0.73462 z m 0.0725,14.1495 6.50212,0 c 0.3605,0 0.71188,-0.23275 0.71188,-0.71175 l 0,-9.07112 c 0,-2.20388 -1.76125,-3.96513 -3.96063,-3.96513 -2.19012,0 -3.96512,1.76125 -3.96512,3.96513 l 0,9.07112 c 0,0.479 0.365,0.71175 0.71175,0.71175 z m 12.01412,-37.561621 c -0.77562,0 -1.40075,0.625 -1.40075,1.40075 l 0,2.5005 c 0,0.17337 0.12775,0.25087 0.25088,0.25087 l 2.29975,0 c 0.12775,0 0.251,-0.0775 0.251,-0.25087 l 0,-2.5005 c 0,-0.77575 -0.62513,-1.40075 -1.40088,-1.40075 z m -0.7255,37.516001 4.6405,0 c 0.24638,0 0.49738,-0.178 0.49738,-0.51563 l 0,-8.78812 c 0,-1.5605 -1.25025,-2.82438 -2.8245,-2.82438 -1.5605,0 -2.81075,1.26388 -2.81075,2.82438 l 0,8.78812 c 0,0.33763 0.251,0.51563 0.49737,0.51563 z m 5.05113,-13.57463 c 0,-0.41512 -0.33763,-0.73912 -0.74825,-0.73912 -0.40163,0 -0.73925,0.324 -0.73925,0.73912 0,0.41075 0.33762,0.73463 0.73925,0.73463 0.41062,0 0.74825,-0.32388 0.74825,-0.73463 z m -4.864,0.73463 c 0.41525,0 0.73912,-0.32388 0.73912,-0.73463 0,-0.41512 -0.32387,-0.73912 -0.73912,-0.73912 -0.41075,0 -0.73463,0.324 -0.73463,0.73912 0,0.41075 0.32388,0.73463 0.73463,0.73463 z m -24.03738,14.802 31.92663,0 0,-1.378 -31.92663,0 0,1.378 z m 30.17438,-35.325881 c 0.12775,0 0.251,-0.0775 0.251,-0.25087 l 0,-2.5005 c 0,-0.77575 -0.62513,-1.40075 -1.40075,-1.40075 -0.77575,0 -1.39625,0.625 -1.39625,1.40075 l 0,2.5005 c 0,0.17337 0.1225,0.25087 0.24637,0.25087 l 2.29963,0 z m -32.93488,38.223381 37.44763,0 0,-2.099 -37.44763,0 0,2.099 z m 5.56213,-5.31125 c 0,0.33762 0.251,0.49737 0.51112,0.49737 l 4.62675,0 c 0.26,0 0.511,-0.15975 0.511,-0.49737 l 0,-8.55088 c 0,-1.57412 -1.26387,-2.82437 -2.82437,-2.82437 -1.5605,0 -2.8245,1.25025 -2.8245,2.82437 l 0,8.55088 z m 0.46087,-37.064251 c -0.77562,0 -1.39625,0.625 -1.39625,1.40075 l 0,2.5005 c 0,0.17337 0.12375,0.25087 0.24638,0.25087 l 2.29975,0 c 0.12775,0 0.251,-0.0775 0.251,-0.25087 l 0,-2.5005 c 0,-0.77575 -0.62513,-1.40075 -1.40088,-1.40075 z m 1.04038,23.941371 c 0,-0.41512 -0.3285,-0.73912 -0.73925,-0.73912 -0.41063,0 -0.74825,0.324 -0.74825,0.73912 0,0.41075 0.33762,0.73463 0.74825,0.73463 0.41075,0 0.73925,-0.32388 0.73925,-0.73463 z m 3.17575,-23.941371 c -0.77575,0 -1.40075,0.625 -1.40075,1.40075 l 0,2.5005 c 0,0.17337 0.12375,0.25087 0.24637,0.25087 l 2.30425,0 c 0.12375,0 0.26,-0.0775 0.26,-0.25087 l 0,-2.5005 c 0,-0.77575 -0.63875,-1.40075 -1.40987,-1.40075 z m -4.677,11.101501 0,5.03737 c 0,0.33763 0.251,0.50188 0.51112,0.50188 l 4.62675,0 c 0.26,0 0.511,-0.16425 0.511,-0.50188 l 0,-5.03737 c 0,-1.5605 -1.26387,-2.8245 -2.82437,-2.8245 -1.5605,0 -2.8245,1.264 -2.8245,2.8245 z m 5.62612,12.83987 c 0,-0.41512 -0.33775,-0.73912 -0.75287,-0.73912 -0.397,0 -0.73463,0.324 -0.73463,0.73912 0,0.41075 0.33763,0.73463 0.73463,0.73463 0.41512,0 0.75287,-0.32388 0.75287,-0.73463 z m -14.02637,19.32388 0,2.61 43.123866,0 0,-2.61 -43.123866,0 z m 20.76112,-25.05025 1.51488,0 c 0.0862,0 0.15975,0.0637 0.15975,0.17337 l 0,1.17725 c 0,0.511 -0.41063,0.92163 -0.91263,0.92163 -0.511,0 -0.92625,-0.41063 -0.92625,-0.92163 l 0,-1.17725 c 0,-0.11 0.0913,-0.17337 0.16425,-0.17337 z m 8.14938,2.81075 -7.37363,-3.988 -7.49687,3.92862 14.8705,0.06 z m -11.83613,-3.226 c 0,0.18712 0.1505,0.3285 0.33763,0.3285 0.17337,0 0.3285,-0.14138 0.3285,-0.3285 0,-0.187 -0.15513,-0.33763 -0.3285,-0.33763 -0.18713,0 -0.33763,0.15063 -0.33763,0.33763 z m 5.6625,-13.647631 c 0.12775,0 0.251,-0.0775 0.251,-0.25087 l 0,-2.5005 c 0,-0.77575 -0.62512,-1.40075 -1.40087,-1.40075 -0.77563,0 -1.40075,0.625 -1.40075,1.40075 l 0,2.5005 c 0,0.17337 0.12775,0.25087 0.25087,0.25087 l 2.29975,0 z m 6.2375,6.949381 0,5.03737 c 0,0.33763 0.25088,0.50188 0.50188,0.50188 l 4.63587,0 c 0.251,0 0.51113,-0.16425 0.51113,-0.50188 l 0,-5.03737 c 0,-1.5605 -1.25938,-2.8245 -2.83813,-2.8245 -1.5605,0 -2.81075,1.264 -2.81075,2.8245 z m -10.71362,5.79937 c -0.27388,0 -0.49738,0.22813 -0.49738,0.50188 0,0.27387 0.2235,0.49737 0.49738,0.49737 0.27825,0 0.5155,-0.2235 0.5155,-0.49737 0,-0.27375 -0.23725,-0.50188 -0.5155,-0.50188 z m 18.77625,-22.536121 1.962,-1.04938 -34.94713,0 1.24563,1.04938 31.7395,0 z m 3.31262,2.92487 2.336246,-2.34075 -41.750496,0 1.4875,2.34075 37.92675,0 z m -21.57337,4.11113 c 0,-0.77575 -0.62513,-1.40075 -1.40075,-1.40075 -0.77575,0 -1.40088,0.625 -1.40088,1.40075 l 0,2.5005 c 0,0.17337 0.12788,0.25087 0.251,0.25087 l 2.29975,0 c 0.12375,0 0.25088,-0.0775 0.25088,-0.25087 l 0,-2.5005 z m 0,9.700751 0,4.87312 2.76062,-1.30037 2.88825,1.41437 0,-4.98712 c 0,-1.5605 -1.26387,-2.8245 -2.82437,-2.8245 -1.56513,0 -2.8245,1.264 -2.8245,2.8245 z m 1.51037,5.76287 c 0.27375,0 0.50188,-0.22362 0.50188,-0.50187 0,-0.27388 -0.22813,-0.49738 -0.50188,-0.49738 -0.2875,0 -0.511,0.2235 -0.511,0.49738 0,0.27825 0.2235,0.50187 0.511,0.50187 z m -0.99925,-0.438 c -0.27375,0 -0.49737,0.2235 -0.49737,0.511 0,0.27838 0.22362,0.50188 0.49737,0.50188 0.27375,0 0.50188,-0.2235 0.50188,-0.50188 0,-0.2875 -0.22813,-0.511 -0.50188,-0.511 z m 1.524,-0.45175 c 0,0.37875 0.31475,0.689 0.69813,0.689 0.39237,0 0.70262,-0.31025 0.70262,-0.689 0,-0.38787 -0.31025,-0.69812 -0.70262,-0.69812 -0.38338,0 -0.69813,0.31025 -0.69813,0.69812 z m 6.55225,-12.073371 0,-2.5005 c 0,-0.77575 -0.62512,-1.40075 -1.4145,-1.40075 -0.77562,0 -1.40075,0.625 -1.40075,1.40075 l 0,2.5005 c 0,0.17337 0.14138,0.25087 0.26463,0.25087 l 2.29975,0 c 0.1225,0 0.25087,-0.0775 0.25087,-0.25087 z m -2.01675,13.898501 c 0,0.18712 0.14138,0.3285 0.3285,0.3285 0.18713,0 0.324,-0.14138 0.324,-0.3285 0,-0.187 -0.13687,-0.33763 -0.324,-0.33763 -0.18712,0 -0.3285,0.15063 -0.3285,0.33763 z m -2.59625,-1.93463 c -0.2875,0 -0.502,0.2235 -0.502,0.49738 0,0.27825 0.2145,0.50187 0.502,0.50187 0.27375,0 0.49725,-0.22362 0.49725,-0.50187 0,-0.27388 -0.2235,-0.49738 -0.49725,-0.49738 z m 1.4875,1.53763 c 0,0.27387 0.2235,0.49737 0.511,0.49737 0.27375,0 0.50188,-0.2235 0.50188,-0.49737 0,-0.27375 -0.22813,-0.50188 -0.50188,-0.50188 -0.2875,0 -0.511,0.22813 -0.511,0.50188 z m -0.51112,0.0362 c 0.2875,0 0.51112,-0.2235 0.51112,-0.50188 0,-0.2875 -0.22362,-0.511 -0.51112,-0.511 -0.27825,0 -0.50188,0.2235 -0.50188,0.511 0,0.27838 0.22363,0.50188 0.50188,0.50188"
       style="fill:#ffffff;fill-opacity:1;fill-rule:nonzero;stroke:none"
       id="path2934" />
  </g>
</svg>
